[01m[K/home/liquid/proj/sonav_robot/kalibr_ws/src/Kalibr/Schweizer-Messer/sm_python/src/exportHomogeneousPoint.cpp:[m[K In function ‘[01m[Kvoid exportHomogeneousPoint()[m[K’:
[01m[K/home/liquid/proj/sonav_robot/kalibr_ws/src/Kalibr/Schweizer-Messer/sm_python/src/exportHomogeneousPoint.cpp:11:27:[m[K [01;35m[Kwarning: [m[Ktypedef ‘[01m[Keuclidean_jacobian_t[m[K’ locally defined but not used [-Wunused-local-typedefs]
   typedef Eigen::Matrix3d euclidean_jacobian_t;
[01;32m[K                           ^[m[K
[01m[K/home/liquid/proj/sonav_robot/kalibr_ws/src/Kalibr/Schweizer-Messer/sm_python/src/exportHomogeneousPoint.cpp:12:37:[m[K [01;35m[Kwarning: [m[Ktypedef ‘[01m[Khomogeneous_jacobian_t[m[K’ locally defined but not used [-Wunused-local-typedefs]
   typedef Eigen::Matrix<double,4,3> homogeneous_jacobian_t;
[01;32m[K                                     ^[m[K
