Symlinking /home/liquid/proj/sonav_robot/kalibr_ws/devel/share/sm_matrix_archive/cmake/sm_matrix_archiveConfig.cmake
Symlinking /home/liquid/proj/sonav_robot/kalibr_ws/devel/share/sm_matrix_archive/cmake/sm_matrix_archiveConfig-version.cmake
Symlinking /home/liquid/proj/sonav_robot/kalibr_ws/devel/lib/libsm_matrix_archive.so
Symlinking /home/liquid/proj/sonav_robot/kalibr_ws/devel/lib/pkgconfig/sm_matrix_archive.pc
Cleaning: (/home/liquid/proj/sonav_robot/catkin_ws/devel/.private/sm_matrix_archive/cmake.lock, /home/liquid/proj/sonav_robot/catkin_ws/devel/./cmake.lock)
Cleaning: (/home/liquid/proj/sonav_robot/catkin_ws/devel/.private/sm_matrix_archive/share/sm_matrix_archive/cmake/sm_matrix_archiveConfig.cmake, /home/liquid/proj/sonav_robot/catkin_ws/devel/share/sm_matrix_archive/cmake/sm_matrix_archiveConfig.cmake)
Cleaning: (/home/liquid/proj/sonav_robot/catkin_ws/devel/.private/sm_matrix_archive/share/sm_matrix_archive/cmake/sm_matrix_archiveConfig-version.cmake, /home/liquid/proj/sonav_robot/catkin_ws/devel/share/sm_matrix_archive/cmake/sm_matrix_archiveConfig-version.cmake)
Cleaning: (/home/liquid/proj/sonav_robot/catkin_ws/devel/.private/sm_matrix_archive/lib/libsm_matrix_archive.so, /home/liquid/proj/sonav_robot/catkin_ws/devel/lib/libsm_matrix_archive.so)
Cleaning: (/home/liquid/proj/sonav_robot/catkin_ws/devel/.private/sm_matrix_archive/lib/pkgconfig/sm_matrix_archive.pc, /home/liquid/proj/sonav_robot/catkin_ws/devel/lib/pkgconfig/sm_matrix_archive.pc)
Unlinking: /home/liquid/proj/sonav_robot/catkin_ws/devel/share/sm_matrix_archive/cmake/sm_matrix_archiveConfig.cmake
Already unlinked: {}
Unlinking: /home/liquid/proj/sonav_robot/catkin_ws/devel/share/sm_matrix_archive/cmake/sm_matrix_archiveConfig-version.cmake
Already unlinked: {}
Unlinking: /home/liquid/proj/sonav_robot/catkin_ws/devel/lib/libsm_matrix_archive.so
Already unlinked: {}
Unlinking: /home/liquid/proj/sonav_robot/catkin_ws/devel/lib/pkgconfig/sm_matrix_archive.pc
Already unlinked: {}
