[33m[1mCMake Warning[0m at /opt/ros/kinetic/share/cmake_modules/cmake/Modules/FindEigen.cmake:62 (message):
  The FindEigen.cmake Module in the cmake_modules package is deprecated.

  Please use the FindEigen3.cmake Module provided with Eigen.  Change
  instances of find_package(Eigen) to find_package(Eigen3).  Check the
  FindEigen3.cmake Module for the resulting CMake variable names.

[36mCall Stack (most recent call first):[0m
  CMakeLists.txt:7 (find_package)


CMake Warning (dev) at /home/liquid/proj/sonav_robot/kalibr_ws/src/Kalibr/Schweizer-Messer/python_module/cmake/add_python_export_library.cmake:131 (get_property):
  Policy CMP0026 is not set: Disallow use of the LOCATION target property.
  Run "cmake --help-policy CMP0026" for policy details.  Use the cmake_policy
  command to set the policy and suppress this warning.

  The LOCATION property should not be read from target "numpy_eigen".  Use
  the target name directly with add_custom_command, or use the generator
  expression $<TARGET_FILE>, as appropriate.

[36mCall Stack (most recent call first):[0m
  CMakeLists.txt:33 (add_python_export_library)
This warning is for project developers.  Use -Wno-dev to suppress it.

CMake Warning (dev) at /home/liquid/proj/sonav_robot/kalibr_ws/src/Kalibr/Schweizer-Messer/python_module/cmake/add_python_export_library.cmake:131 (get_property):
  Policy CMP0026 is not set: Disallow use of the LOCATION target property.
  Run "cmake --help-policy CMP0026" for policy details.  Use the cmake_policy
  command to set the policy and suppress this warning.

  The LOCATION property should not be read from target "numpy_eigen_test".
  Use the target name directly with add_custom_command, or use the generator
  expression $<TARGET_FILE>, as appropriate.

[36mCall Stack (most recent call first):[0m
  CMakeLists.txt:41 (add_python_export_library)
This warning is for project developers.  Use -Wno-dev to suppress it.

