Symlinking /home/liquid/proj/sonav_robot/kalibr_ws/devel/share/aslam_cv_error_terms/cmake/aslam_cv_error_termsConfig-version.cmake
Symlinking /home/liquid/proj/sonav_robot/kalibr_ws/devel/share/aslam_cv_error_terms/cmake/aslam_cv_error_termsConfig.cmake
Symlinking /home/liquid/proj/sonav_robot/kalibr_ws/devel/lib/pkgconfig/aslam_cv_error_terms.pc
Cleaning: (/home/liquid/proj/sonav_robot/catkin_ws/devel/.private/aslam_cv_error_terms/cmake.lock, /home/liquid/proj/sonav_robot/catkin_ws/devel/./cmake.lock)
Cleaning: (/home/liquid/proj/sonav_robot/catkin_ws/devel/.private/aslam_cv_error_terms/share/aslam_cv_error_terms/cmake/aslam_cv_error_termsConfig-version.cmake, /home/liquid/proj/sonav_robot/catkin_ws/devel/share/aslam_cv_error_terms/cmake/aslam_cv_error_termsConfig-version.cmake)
Cleaning: (/home/liquid/proj/sonav_robot/catkin_ws/devel/.private/aslam_cv_error_terms/share/aslam_cv_error_terms/cmake/aslam_cv_error_termsConfig.cmake, /home/liquid/proj/sonav_robot/catkin_ws/devel/share/aslam_cv_error_terms/cmake/aslam_cv_error_termsConfig.cmake)
Cleaning: (/home/liquid/proj/sonav_robot/catkin_ws/devel/.private/aslam_cv_error_terms/lib/pkgconfig/aslam_cv_error_terms.pc, /home/liquid/proj/sonav_robot/catkin_ws/devel/lib/pkgconfig/aslam_cv_error_terms.pc)
Unlinking: /home/liquid/proj/sonav_robot/catkin_ws/devel/share/aslam_cv_error_terms/cmake/aslam_cv_error_termsConfig-version.cmake
Already unlinked: {}
Unlinking: /home/liquid/proj/sonav_robot/catkin_ws/devel/share/aslam_cv_error_terms/cmake/aslam_cv_error_termsConfig.cmake
Already unlinked: {}
Unlinking: /home/liquid/proj/sonav_robot/catkin_ws/devel/lib/pkgconfig/aslam_cv_error_terms.pc
Already unlinked: {}
