[36m--[0m Using OpenCV library directory
[36m--[0m Found OpenCV include directory /opt/ros/kinetic/include/opencv-3.3.1-dev;/opt/ros/kinetic/include/opencv-3.3.1-dev/opencv
[36m--[0m Found OpenCV libraries opencv_calib3d;opencv_core;opencv_dnn;opencv_features2d;opencv_flann;opencv_highgui;opencv_imgcodecs;opencv_imgproc;opencv_ml;opencv_objdetect;opencv_photo;opencv_shape;opencv_stitching;opencv_superres;opencv_video;opencv_videoio;opencv_videostab;opencv_viz;opencv_aruco;opencv_bgsegm;opencv_bioinspired;opencv_ccalib;opencv_cvv;opencv_datasets;opencv_dpm;opencv_face;opencv_fuzzy;opencv_hdf;opencv_img_hash;opencv_line_descriptor;opencv_optflow;opencv_phase_unwrapping;opencv_plot;opencv_reg;opencv_rgbd;opencv_saliency;opencv_stereo;opencv_structured_light;opencv_surface_matching;opencv_text;opencv_tracking;opencv_xfeatures2d;opencv_ximgproc;opencv_xobjdetect;opencv_xphoto
